<?xml version="1.0" encoding="UTF-8"?>
<testng-results skipped="0" failed="0" total="3" passed="3">
  <reporter-output>
  </reporter-output>
  <suite name="PageObjectExampleTest" duration-ms="70038" started-at="2016-06-08T14:49:43Z" finished-at="2016-06-08T14:50:53Z">
    <groups>
    </groups>
    <test name="MailPageTesting" duration-ms="70038" started-at="2016-06-08T14:49:43Z" finished-at="2016-06-08T14:50:53Z">
      <class name="pageobject.SavedMailPagetest.SavedMailPageTestSuit">
        <test-method status="PASS" signature="setup(java.lang.String)[pri:0, instance:pageobject.SavedMailPagetest.SavedMailPageTestSuit@57829d67]" name="setup" is-config="true" duration-ms="29441" started-at="2016-06-08T17:49:43Z" finished-at="2016-06-08T17:50:12Z">
          <params>
            <param index="0">
              <value>
                <![CDATA[firefox]]>
              </value>
            </param>
          </params>
          <reporter-output>
          </reporter-output>
        </test-method> <!-- setup -->
        <test-method status="PASS" signature="logOutV1()[pri:0, instance:pageobject.SavedMailPagetest.SavedMailPageTestSuit@57829d67]" name="logOutV1" duration-ms="8195" started-at="2016-06-08T17:50:12Z" finished-at="2016-06-08T17:50:21Z">
          <reporter-output>
          </reporter-output>
        </test-method> <!-- logOutV1 -->
        <test-method status="PASS" signature="tearDown()[pri:0, instance:pageobject.SavedMailPagetest.SavedMailPageTestSuit@57829d67]" name="tearDown" is-config="true" duration-ms="1210" started-at="2016-06-08T17:50:21Z" finished-at="2016-06-08T17:50:22Z">
          <reporter-output>
          </reporter-output>
        </test-method> <!-- tearDown -->
        <test-method status="PASS" signature="setup(java.lang.String)[pri:0, instance:pageobject.SavedMailPagetest.SavedMailPageTestSuit@57829d67]" name="setup" is-config="true" duration-ms="9429" started-at="2016-06-08T17:50:22Z" finished-at="2016-06-08T17:50:31Z">
          <params>
            <param index="0">
              <value>
                <![CDATA[firefox]]>
              </value>
            </param>
          </params>
          <reporter-output>
          </reporter-output>
        </test-method> <!-- setup -->
        <test-method status="PASS" signature="logOutV2()[pri:0, instance:pageobject.SavedMailPagetest.SavedMailPageTestSuit@57829d67]" name="logOutV2" duration-ms="6361" started-at="2016-06-08T17:50:31Z" finished-at="2016-06-08T17:50:38Z">
          <reporter-output>
          </reporter-output>
        </test-method> <!-- logOutV2 -->
        <test-method status="PASS" signature="tearDown()[pri:0, instance:pageobject.SavedMailPagetest.SavedMailPageTestSuit@57829d67]" name="tearDown" is-config="true" duration-ms="480" started-at="2016-06-08T17:50:38Z" finished-at="2016-06-08T17:50:38Z">
          <reporter-output>
          </reporter-output>
        </test-method> <!-- tearDown -->
        <test-method status="PASS" signature="setup(java.lang.String)[pri:0, instance:pageobject.SavedMailPagetest.SavedMailPageTestSuit@57829d67]" name="setup" is-config="true" duration-ms="8237" started-at="2016-06-08T17:50:38Z" finished-at="2016-06-08T17:50:46Z">
          <params>
            <param index="0">
              <value>
                <![CDATA[firefox]]>
              </value>
            </param>
          </params>
          <reporter-output>
          </reporter-output>
        </test-method> <!-- setup -->
        <test-method status="PASS" signature="logOutV3()[pri:0, instance:pageobject.SavedMailPagetest.SavedMailPageTestSuit@57829d67]" name="logOutV3" duration-ms="6009" started-at="2016-06-08T17:50:46Z" finished-at="2016-06-08T17:50:52Z">
          <reporter-output>
          </reporter-output>
        </test-method> <!-- logOutV3 -->
        <test-method status="PASS" signature="tearDown()[pri:0, instance:pageobject.SavedMailPagetest.SavedMailPageTestSuit@57829d67]" name="tearDown" is-config="true" duration-ms="658" started-at="2016-06-08T17:50:52Z" finished-at="2016-06-08T17:50:53Z">
          <reporter-output>
          </reporter-output>
        </test-method> <!-- tearDown -->
      </class> <!-- pageobject.SavedMailPagetest.SavedMailPageTestSuit -->
    </test> <!-- MailPageTesting -->
  </suite> <!-- PageObjectExampleTest -->
</testng-results>
